<svg xmlns="http://www.w3.org/2000/svg" viewBox="91 1893 724 180">
  <defs>
    <style>
      .cls-1 {
        font-size: 75px;
        font-family: DancingScript-Regular, Dancing Script;
      }

      .cls-2 {
        fill: #ff7f5b;
        font-size: 100px;
        font-family: Lato-Light, Lato;
        font-weight: 300;
      }

      .cls-3 {
        fill: #393939;
        stroke: #707070;
      }

      .cls-4 {
        stroke: none;
      }

      .cls-5 {
        fill: none;
      }
    </style>
  </defs>
  <g id="Group_3" data-name="Group 3" transform="translate(-230 -39)">
    <g id="Symbol_1_1" data-name="Symbol 1 – 1" transform="translate(276 1730)">
      <text id="Cuchara" class="cls-1" transform="translate(295 271)"><tspan x="0" y="0">Cuchara</tspan></text>
      <text id="NICA" class="cls-2" transform="translate(287 361)"><tspan x="0" y="0">NICA</tspan></text>
    </g>
    <g id="Group_1" data-name="Group 1" transform="translate(62 32)">
      <g id="Rectangle_4" data-name="Rectangle 4" class="cls-3" transform="translate(259 1978)">
        <rect class="cls-4" width="210" height="4"/>
        <rect class="cls-5" x="0.5" y="0.5" width="209" height="3"/>
      </g>
      <g id="Rectangle_5" data-name="Rectangle 5" class="cls-3" transform="translate(259 1998)">
        <rect class="cls-4" width="210" height="4"/>
        <rect class="cls-5" x="0.5" y="0.5" width="209" height="3"/>
      </g>
    </g>
    <g id="Group_2" data-name="Group 2" transform="translate(576 32)">
      <g id="Rectangle_4-2" data-name="Rectangle 4" class="cls-3" transform="translate(259 1978)">
        <rect class="cls-4" width="210" height="4"/>
        <rect class="cls-5" x="0.5" y="0.5" width="209" height="3"/>
      </g>
      <g id="Rectangle_5-2" data-name="Rectangle 5" class="cls-3" transform="translate(259 1998)">
        <rect class="cls-4" width="210" height="4"/>
        <rect class="cls-5" x="0.5" y="0.5" width="209" height="3"/>
      </g>
    </g>
  </g>
</svg>
