<svg xmlns="http://www.w3.org/2000/svg" xmlns:xlink="http://www.w3.org/1999/xlink" viewBox="397 627 113 113">
  <defs>
    <style>
      .cls-1 {
        fill: #d2ebcd;
      }

      .cls-2 {
        fill: #393939;
      }

      .cls-3 {
        fill: #a46f3e;
      }

      .cls-4 {
        filter: url(#Ellipse_1);
      }
    </style>
    <filter id="Ellipse_1" x="397" y="627" width="113" height="113" filterUnits="userSpaceOnUse">
      <feOffset dy="2" input="SourceAlpha"/>
      <feGaussianBlur stdDeviation="5" result="blur"/>
      <feFlood flood-opacity="0.459"/>
      <feComposite operator="in" in2="blur"/>
      <feComposite in="SourceGraphic"/>
    </filter>
  </defs>
  <g id="icon-fork" transform="translate(-236 95)">
    <g class="cls-4" transform="matrix(1, 0, 0, 1, 236, -95)">
      <circle id="Ellipse_1-2" data-name="Ellipse 1" class="cls-1" cx="41.5" cy="41.5" r="41.5" transform="translate(412 640)"/>
    </g>
    <g id="fork" transform="translate(719 616) rotate(180)">
      <path id="Path_2" data-name="Path 2" class="cls-2" d="M29,31a1,1,0,0,1-1-1V1a1,1,0,0,1,2,0V30A1,1,0,0,1,29,31Z"/>
      <path id="Path_3" data-name="Path 3" class="cls-2" d="M29,19a5.006,5.006,0,0,1-5-5V1a1,1,0,0,1,2,0V14a3,3,0,0,0,6,0V1a1,1,0,0,1,2,0V14A5.006,5.006,0,0,1,29,19Z"/>
      <path id="Path_4" data-name="Path 4" class="cls-3" d="M29,58h0a3.009,3.009,0,0,1-3-3V33a3.009,3.009,0,0,1,3-3h0a3.009,3.009,0,0,1,3,3V55A3.009,3.009,0,0,1,29,58Z"/>
      <path id="Path_5" data-name="Path 5" class="cls-2" d="M29,36h0a1,1,0,0,1-1-1h0a1,1,0,0,1,1-1h0a1,1,0,0,1,1,1h0A1,1,0,0,1,29,36Z"/>
      <path id="Path_6" data-name="Path 6" class="cls-2" d="M29,40h0a1,1,0,0,1-1-1h0a1,1,0,0,1,1-1h0a1,1,0,0,1,1,1h0A1,1,0,0,1,29,40Z"/>
    </g>
  </g>
</svg>
