<svg xmlns="http://www.w3.org/2000/svg" viewBox="321 793 266 87.942">
  <defs>
    <style>
      .cls-1 {
        fill: #393939;
        font-size: 56px;
        font-family: DancingScript-Regular, Dancing Script;
      }

      .cls-2 {
        fill: #ff7f5b;
      }
    </style>
  </defs>
  <g id="menu-title" transform="translate(-316 170)">
    <text id="Menú_del_día" data-name="Menú del día" class="cls-1" transform="translate(638 675)"><tspan x="0" y="0">Menú del día</tspan></text>
    <g id="Group_15" data-name="Group 15" transform="translate(87 -2475)">
      <rect id="Rectangle_1" data-name="Rectangle 1" class="cls-2" width="110" height="2" transform="translate(560 3176)"/>
      <rect id="Rectangle_12" data-name="Rectangle 12" class="cls-2" width="110" height="2" transform="translate(696 3176)"/>
      <path id="Path_9" data-name="Path 9" class="cls-2" d="M8-22.173a.7.7,0,0,0-.5-.5,1.255,1.255,0,0,0-.865,0,.627.627,0,0,0-.481.538v5.423q-.038.115-.308.115t-.308-.077l-.308-5.462a.708.708,0,0,0-.5-.538,1.2,1.2,0,0,0-.846,0,.708.708,0,0,0-.5.538l-.308,5.462q-.038.077-.308.077t-.308-.115v-5.423a.627.627,0,0,0-.481-.538,1.255,1.255,0,0,0-.865,0,.7.7,0,0,0-.5.5h0A36.623,36.623,0,0,0,0-17.212a4.406,4.406,0,0,0,.712,2.519,3.95,3.95,0,0,0,1.942,1.519l-.5,9.154a.8.8,0,0,0,.25.673.922.922,0,0,0,.673.288H5.538a.922.922,0,0,0,.673-.288.8.8,0,0,0,.25-.673l-.5-9.154A3.95,3.95,0,0,0,7.9-14.692a4.406,4.406,0,0,0,.712-2.519A36.623,36.623,0,0,0,8-22.173Zm4.577,11A6.594,6.594,0,0,1,10-14.981a5.913,5.913,0,0,1,.385-3.731,7.562,7.562,0,0,1,2.1-2.885,4.121,4.121,0,0,1,2.6-1.154.89.89,0,0,1,.654.269.89.89,0,0,1,.269.654V-3.981a.89.89,0,0,1-.269.654.89.89,0,0,1-.654.269H12.923a.878.878,0,0,1-.692-.308A.881.881,0,0,1,12-4.058Z" transform="translate(675 3189)"/>
    </g>
  </g>
</svg>
